{
  "calories": "Calories",
  "cholesterol": "Cholesterol",
  "dietaryFiber": "Dietary Fiber",
  "potassium": "Potassium",
  "protein": "Protein",
  "saturatedFat": "Saturated fat",
  "sodium": "Sodium",
  "sugars": "Sugars",
  "totalCarbohydrate": "Total carbohydrate",
  "totalFat": "Total fat"
}